120 100 50 100
59.865 30 50.0675 0 1 0
69.1911 30 50.3795 0 1 0
77.9704 30 50.9167 0 1 0
86.1956 30 51.6612 0 1 0
93.861 30 52.5957 0 1 0
100.961 30 53.7034 0 1 0
107.493 30 54.9684 0 1 0
113.451 30 56.3749 0 1 0
118.833 30 57.9075 0 1 0
123.638 30 59.5511 0 1 0
127.862 30 61.2904 0 1 0
131.506 30 63.11 0 1 0
134.569 30 64.9943 0 1 0
137.051 30 66.9272 0 1 0
138.955 30 68.8919 0 1 0
140.284 30 70.8705 0 1 0
141.043 30 72.8439 0 1 0
141.242 30 74.7913 0 1 0
140.897 30 76.6893 0 1 0
140.032 30 78.5123 0 1 0
138.691 30 80.2323 0 1 0
136.952 30 81.823 0 1 0
134.935 30 83.2682 0 1 0
132.785 30 84.573 0 1 0
130.619 30 85.7561 0 1 0
128.509 30 86.8361 0 1 0
126.49 30 87.8271 0 1 0
124.582 30 88.7395 0 1 0
122.792 30 89.581 0 1 0
121.121 30 90.3581 0 1 0
119.565 30 91.0762 0 1 0
118.12 30 91.7401 0 1 0
116.78 30 92.354 0 1 0
115.538 30 92.9217 0 1 0
114.387 30 93.447 0 1 0
113.322 30 93.9329 0 1 0
112.335 30 94.3826 0 1 0
111.422 30 94.7988 0 1 0
110.576 30 95.1839 0 1 0
109.793 30 95.5404 0 1 0
109.069 30 95.8705 0 1 0
108.398 30 96.176 0 1 0
107.777 30 96.4588 0 1 0
107.202 30 96.7207 0 1 0
106.669 30 96.9632 0 1 0
106.176 30 97.1877 0 1 0
105.72 30 97.3956 0 1 0
105.297 30 97.5881 0 1 0
104.905 30 97.7663 0 1 0
104.543 30 97.9314 0 1 0
104.207 30 98.0843 0 1 0
103.896 30 98.2258 0 1 0
103.608 30 98.3569 0 1 0
103.342 30 98.4783 0 1 0
103.095 30 98.5907 0 1 0
102.866 30 98.6949 0 1 0
102.655 30 98.7913 0 1 0
102.458 30 98.8806 0 1 0
102.277 30 98.9633 0 1 0
102.109 30 99.0399 0 1 0
101.953 30 99.1108 0 1 0
101.809 30 99.1765 0 1 0
101.675 30 99.2373 0 1 0
101.551 30 99.2937 0 1 0
101.437 30 99.3458 0 1 0
101.331 30 99.3942 0 1 0
101.232 30 99.4389 0 1 0
101.141 30 99.4804 0 1 0
101.057 30 99.5187 0 1 0
100.979 30 99.5543 0 1 0
100.907 30 99.5872 0 1 0
100.84 30 99.6177 0 1 0
100.778 30 99.6459 0 1 0
100.72 30 99.6721 0 1 0
100.667 30 99.6963 0 1 0
100.618 30 99.7188 0 1 0
100.572 30 99.7395 0 1 0
100.53 30 99.7588 0 1 0
100.491 30 99.7766 0 1 0
100.454 30 99.7931 0 1 0
100.421 30 99.8084 0 1 0
100.39 30 99.8225 0 1 0
100.361 30 99.8356 0 1 0
100.334 30 99.8478 0 1 0
100.31 30 99.859 0 1 0
100.287 30 99.8694 0 1 0
100.266 30 99.8791 0 1 0
100.246 30 99.888 0 1 0
100.228 30 99.8963 0 1 0
100.211 30 99.9039 0 1 0
100.195 30 99.911 0 1 0
100.181 30 99.9176 0 1 0
100.168 30 99.9237 0 1 0
100.155 30 99.9293 0 1 0
100.144 30 99.9346 0 1 0
100.133 30 99.9394 0 1 0
100.123 30 99.9439 0 1 0
100.114 30 99.948 0 1 0
100.106 30 99.9519 0 1 0
100.098 30 99.9554 0 1 0
100.091 30 99.9587 0 1 0
100.084 30 99.9618 0 1 0
100.078 30 99.9646 0 1 0
100.072 30 99.9672 0 1 0
100.067 30 99.9696 0 1 0
100.062 30 99.9719 0 1 0
100.057 30 99.9739 0 1 0
100.053 30 99.9759 0 1 0
100.049 30 99.9776 0 1 0
100.045 30 99.9793 0 1 0
100.042 30 99.9808 0 1 0
100.039 30 99.9822 0 1 0
100.036 30 99.9836 0 1 0
100.033 30 99.9848 0 1 0
100.031 30 99.9859 0 1 0
100.029 30 99.9869 0 1 0
100.027 30 99.9879 0 1 0
100.025 30 99.9888 0 1 0
100.023 30 99.9896 0 1 0
100.021 30 99.9904 0 1 0
200 300 50 140
100.605 30 100.108 0 1 0
101.774 30 100.343 0 1 0
103.528 30 100.695 0 1 0
105.865 30 101.163 0 1 0
108.786 30 101.749 0 1 0
112.29 30 102.45 0 1 0
116.373 30 103.268 0 1 0
121.036 30 104.201 0 1 0
126.274 30 105.249 0 1 0
132.084 30 106.412 0 1 0
138.459 30 107.688 0 1 0
145.389 30 109.074 0 1 0
152.857 30 110.568 0 1 0
160.836 30 112.165 0 1 0
169.229 30 113.843 0 1 0
177.764 30 115.551 0 1 0
186.132 30 117.225 0 1 0
194.2 30 118.838 0 1 0
201.907 30 120.38 0 1 0
209.222 30 121.843 0 1 0
216.129 30 123.225 0 1 0
222.618 30 124.522 0 1 0
228.687 30 125.736 0 1 0
234.34 30 126.867 0 1 0
239.581 30 127.915 0 1 0
244.422 30 128.884 0 1 0
248.878 30 129.775 0 1 0
252.965 30 130.592 0 1 0
256.707 30 131.341 0 1 0
260.126 30 132.025 0 1 0
263.249 30 132.649 0 1 0
266.103 30 133.22 0 1 0
268.714 30 133.742 0 1 0
271.105 30 134.221 0 1 0
273.299 30 134.659 0 1 0
275.316 30 135.063 0 1 0
277.172 30 135.434 0 1 0
278.882 30 135.776 0 1 0
280.46 30 136.092 0 1 0
281.916 30 136.383 0 1 0
283.262 30 136.652 0 1 0
284.506 30 136.901 0 1 0
285.656 30 137.131 0 1 0
286.72 30 137.344 0 1 0
287.704 30 137.541 0 1 0
288.615 30 137.723 0 1 0
289.458 30 137.891 0 1 0
290.238 30 138.047 0 1 0
290.96 30 138.192 0 1 0
291.629 30 138.326 0 1 0
292.248 30 138.45 0 1 0
292.821 30 138.564 0 1 0
293.352 30 138.67 0 1 0
293.843 30 138.769 0 1 0
294.298 30 138.86 0 1 0
294.72 30 138.944 0 1 0
295.11 30 139.022 0 1 0
295.471 30 139.094 0 1 0
295.806 30 139.161 0 1 0
296.116 30 139.223 0 1 0
296.403 30 139.281 0 1 0
296.669 30 139.334 0 1 0
296.915 30 139.383 0 1 0
297.143 30 139.429 0 1 0
297.354 30 139.471 0 1 0
297.549 30 139.51 0 1 0
297.73 30 139.546 0 1 0
297.898 30 139.58 0 1 0
298.053 30 139.611 0 1 0
298.197 30 139.639 0 1 0
298.33 30 139.666 0 1 0
298.454 30 139.691 0 1 0
298.568 30 139.714 0 1 0
298.674 30 139.735 0 1 0
298.772 30 139.754 0 1 0
298.862 30 139.772 0 1 0
298.946 30 139.789 0 1 0
299.024 30 139.805 0 1 0
299.096 30 139.819 0 1 0
299.163 30 139.833 0 1 0
299.225 30 139.845 0 1 0
299.282 30 139.856 0 1 0
299.335 30 139.867 0 1 0
299.384 30 139.877 0 1 0
299.43 30 139.886 0 1 0
299.472 30 139.894 0 1 0
299.511 30 139.902 0 1 0
299.547 30 139.909 0 1 0
299.58 30 139.916 0 1 0
299.611 30 139.922 0 1 0
299.64 30 139.928 0 1 0
299.667 30 139.933 0 1 0
299.691 30 139.938 0 1 0
299.714 30 139.943 0 1 0
299.735 30 139.947 0 1 0
299.755 30 139.951 0 1 0
299.773 30 139.955 0 1 0
299.79 30 139.958 0 1 0
299.805 30 139.961 0 1 0
299.82 30 139.964 0 1 0
299.833 30 139.967 0 1 0
299.845 30 139.969 0 1 0
299.857 30 139.971 0 1 0
299.867 30 139.973 0 1 0
299.877 30 139.975 0 1 0
299.886 30 139.977 0 1 0
299.895 30 139.979 0 1 0
299.902 30 139.98 0 1 0
299.91 30 139.982 0 1 0
299.916 30 139.983 0 1 0
299.922 30 139.984 0 1 0
299.928 30 139.986 0 1 0
299.933 30 139.987 0 1 0
299.938 30 139.988 0 1 0
299.943 30 139.989 0 1 0
299.947 30 139.989 0 1 0
299.951 30 139.99 0 1 0
299.955 30 139.991 0 1 0
299.958 30 139.992 0 1 0
299.961 30 139.992 0 1 0
299.964 30 139.993 0 1 0
299.967 30 139.993 0 1 0
299.969 30 139.994 0 1 0
299.971 30 139.994 0 1 0
299.974 30 139.995 0 1 0
299.975 30 139.995 0 1 0
299.977 30 139.995 0 1 0
299.979 30 139.996 0 1 0
299.981 30 139.996 0 1 0
299.982 30 139.996 0 1 0
299.983 30 139.997 0 1 0
299.985 30 139.997 0 1 0
299.986 30 139.997 0 1 0
299.987 30 139.997 0 1 0
299.988 30 139.998 0 1 0
299.989 30 139.998 0 1 0
299.989 30 139.998 0 1 0
299.99 30 139.998 0 1 0
299.991 30 139.998 0 1 0
299.992 30 139.998 0 1 0
299.992 30 139.998 0 1 0
299.993 30 139.999 0 1 0
299.993 30 139.999 0 1 0
299.994 30 139.999 0 1 0
299.994 30 139.999 0 1 0
299.995 30 139.999 0 1 0
299.995 30 139.999 0 1 0
299.995 30 139.999 0 1 0
299.996 30 139.999 0 1 0
299.996 30 139.999 0 1 0
299.996 30 139.999 0 1 0
299.997 30 139.999 0 1 0
299.997 30 139.999 0 1 0
299.997 30 139.999 0 1 0
299.997 30 139.999 0 1 0
299.998 30 140 0 1 0
299.998 30 140 0 1 0
299.998 30 140 0 1 0
299.998 30 140 0 1 0
299.998 30 140 0 1 0
299.998 30 140 0 1 0
299.998 30 140 0 1 0
299.999 30 140 0 1 0
299.999 30 140 0 1 0
299.999 30 140 0 1 0
299.999 30 140 0 1 0
299.999 30 140 0 1 0
299.999 30 140 0 1 0
299.999 30 140 0 1 0
299.999 30 140 0 1 0
299.999 30 140 0 1 0
299.999 30 140 0 1 0
299.999 30 140 0 1 0
299.999 30 140 0 1 0
299.999 30 140 0 1 0
299.999 30 140 0 1 0
300 30 140 0 1 0
300 30 140 0 1 0
300 30 140 0 1 0
300 30 140 0 1 0
300 30 140 0 1 0
300 30 140 0 1 0
300 30 140 0 1 0
300 30 140 0 1 0
300 30 140 0 1 0
300 30 140 0 1 0
300 30 140 0 1 0
300 30 140 0 1 0
300 30 140 0 1 0
300 30 140 0 1 0
300 30 140 0 1 0
300 30 140 0 1 0
300 30 140 0 1 0
300 30 140 0 1 0
300 30 140 0 1 0
300 30 140 0 1 0
300 30 140 0 1 0
300 30 140 0 1 0
300 30 140 0 1 0
300 30 140 0 1 0
200 500 50 500
300.291 30 140.524 0 1 0
300.873 30 141.572 0 1 0
301.746 30 143.143 0 1 0
302.91 30 145.238 0 1 0
304.364 30 147.856 0 1 0
306.11 30 150.998 0 1 0
308.146 30 154.662 0 1 0
310.472 30 158.849 0 1 0
313.088 30 163.558 0 1 0
315.993 30 168.788 0 1 0
319.188 30 174.538 0 1 0
322.67 30 180.806 0 1 0
326.438 30 187.589 0 1 0
330.489 30 194.881 0 1 0
334.816 30 202.668 0 1 0
339.397 30 210.915 0 1 0
344.175 30 219.515 0 1 0
349.018 30 228.232 0 1 0
353.864 30 236.955 0 1 0
358.71 30 245.678 0 1 0
363.555 30 254.399 0 1 0
368.399 30 263.118 0 1 0
373.243 30 271.837 0 1 0
378.085 30 280.553 0 1 0
382.927 30 289.268 0 1 0
387.767 30 297.98 0 1 0
392.606 30 306.69 0 1 0
397.443 30 315.398 0 1 0
402.279 30 324.102 0 1 0
407.113 30 332.803 0 1 0
411.944 30 341.5 0 1 0
416.774 30 350.193 0 1 0
421.6 30 358.88 0 1 0
426.423 30 367.561 0 1 0
431.242 30 376.236 0 1 0
435.962 30 384.731 0 1 0
440.515 30 392.927 0 1 0
444.873 30 400.771 0 1 0
449.019 30 408.234 0 1 0
452.945 30 415.3 0 1 0
456.645 30 421.961 0 1 0
460.118 30 428.213 0 1 0
463.363 30 434.054 0 1 0
466.381 30 439.486 0 1 0
469.176 30 444.516 0 1 0
471.751 30 449.152 0 1 0
474.113 30 453.404 0 1 0
476.271 30 457.288 0 1 0
478.236 30 460.824 0 1 0
480.019 30 464.034 0 1 0
481.636 30 466.945 0 1 0
483.102 30 469.583 0 1 0
484.432 30 471.978 0 1 0
485.643 30 474.157 0 1 0
486.747 30 476.144 0 1 0
487.757 30 477.963 0 1 0
488.684 30 479.631 0 1 0
489.536 30 481.164 0 1 0
490.32 30 482.576 0 1 0
491.043 30 483.877 0 1 0
491.71 30 485.079 0 1 0
492.327 30 486.189 0 1 0
492.897 30 487.215 0 1 0
493.424 30 488.163 0 1 0
493.912 30 489.041 0 1 0
494.363 30 489.853 0 1 0
494.78 30 490.604 0 1 0
495.166 30 491.3 0 1 0
495.524 30 491.943 0 1 0
495.855 30 492.539 0 1 0
496.162 30 493.091 0 1 0
496.446 30 493.602 0 1 0
496.708 30 494.075 0 1 0
496.952 30 494.513 0 1 0
497.177 30 494.918 0 1 0
497.386 30 495.294 0 1 0
497.579 30 495.642 0 1 0
497.758 30 495.964 0 1 0
497.923 30 496.262 0 1 0
498.077 30 496.538 0 1 0
498.219 30 496.794 0 1 0
498.351 30 497.031 0 1 0
498.472 30 497.25 0 1 0
498.585 30 497.453 0 1 0
498.69 30 497.642 0 1 0
498.787 30 497.816 0 1 0
498.876 30 497.977 0 1 0
498.959 30 498.127 0 1 0
499.036 30 498.265 0 1 0
499.107 30 498.393 0 1 0
499.173 30 498.512 0 1 0
499.234 30 498.622 0 1 0
499.291 30 498.724 0 1 0
499.343 30 498.818 0 1 0
499.392 30 498.905 0 1 0
499.437 30 498.986 0 1 0
499.478 30 499.061 0 1 0
499.517 30 499.13 0 1 0
499.553 30 499.195 0 1 0
499.586 30 499.254 0 1 0
499.616 30 499.309 0 1 0
499.645 30 499.36 0 1 0
499.671 30 499.407 0 1 0
499.695 30 499.451 0 1 0
499.718 30 499.492 0 1 0
499.739 30 499.529 0 1 0
499.758 30 499.564 0 1 0
499.776 30 499.596 0 1 0
499.792 30 499.626 0 1 0
499.808 30 499.654 0 1 0
499.822 30 499.679 0 1 0
499.835 30 499.703 0 1 0
499.847 30 499.725 0 1 0
499.858 30 499.745 0 1 0
499.869 30 499.764 0 1 0
499.879 30 499.781 0 1 0
499.888 30 499.798 0 1 0
499.896 30 499.813 0 1 0
499.904 30 499.826 0 1 0
499.911 30 499.839 0 1 0
499.917 30 499.851 0 1 0
499.923 30 499.862 0 1 0
499.929 30 499.872 0 1 0
499.934 30 499.882 0 1 0
499.939 30 499.89 0 1 0
499.944 30 499.899 0 1 0
499.948 30 499.906 0 1 0
499.952 30 499.913 0 1 0
499.955 30 499.919 0 1 0
499.959 30 499.925 0 1 0
499.962 30 499.931 0 1 0
499.964 30 499.936 0 1 0
499.967 30 499.941 0 1 0
499.969 30 499.945 0 1 0
499.972 30 499.949 0 1 0
499.974 30 499.953 0 1 0
499.976 30 499.956 0 1 0
499.978 30 499.96 0 1 0
499.979 30 499.963 0 1 0
499.981 30 499.965 0 1 0
499.982 30 499.968 0 1 0
499.983 30 499.97 0 1 0
499.985 30 499.972 0 1 0
499.986 30 499.975 0 1 0
499.987 30 499.976 0 1 0
499.988 30 499.978 0 1 0
499.989 30 499.98 0 1 0
499.99 30 499.981 0 1 0
499.99 30 499.983 0 1 0
499.991 30 499.984 0 1 0
499.992 30 499.985 0 1 0
499.992 30 499.986 0 1 0
499.993 30 499.987 0 1 0
499.993 30 499.988 0 1 0
499.994 30 499.989 0 1 0
499.994 30 499.99 0 1 0
499.995 30 499.991 0 1 0
499.995 30 499.991 0 1 0
499.996 30 499.992 0 1 0
499.996 30 499.993 0 1 0
499.996 30 499.993 0 1 0
499.996 30 499.994 0 1 0
499.997 30 499.994 0 1 0
499.997 30 499.995 0 1 0
499.997 30 499.995 0 1 0
499.997 30 499.995 0 1 0
499.998 30 499.996 0 1 0
499.998 30 499.996 0 1 0
499.998 30 499.996 0 1 0
499.998 30 499.997 0 1 0
499.998 30 499.997 0 1 0
499.998 30 499.997 0 1 0
499.998 30 499.997 0 1 0
499.999 30 499.997 0 1 0
499.999 30 499.998 0 1 0
499.999 30 499.998 0 1 0
499.999 30 499.998 0 1 0
499.999 30 499.998 0 1 0
499.999 30 499.998 0 1 0
499.999 30 499.998 0 1 0
499.999 30 499.999 0 1 0
499.999 30 499.999 0 1 0
499.999 30 499.999 0 1 0
499.999 30 499.999 0 1 0
499.999 30 499.999 0 1 0
499.999 30 499.999 0 1 0
499.999 30 499.999 0 1 0
500 30 499.999 0 1 0
500 30 499.999 0 1 0
500 30 499.999 0 1 0
500 30 499.999 0 1 0
500 30 499.999 0 1 0
500 30 499.999 0 1 0
500 30 499.999 0 1 0
500 30 499.999 0 1 0
500 30 500 0 1 0
500 30 500 0 1 0
500 30 500 0 1 0
500 30 500 0 1 0
500 30 500 0 1 0
200 550 50 10
500.061 30 499.403 0 1 0
500.182 30 498.211 0 1 0
500.365 30 496.422 0 1 0
500.608 30 494.036 0 1 0
500.913 30 491.055 0 1 0
501.278 30 487.478 0 1 0
501.703 30 483.306 0 1 0
502.19 30 478.538 0 1 0
502.737 30 473.175 0 1 0
503.345 30 467.217 0 1 0
504.014 30 460.667 0 1 0
504.742 30 453.524 0 1 0
505.531 30 445.792 0 1 0
506.38 30 437.475 0 1 0
507.287 30 428.584 0 1 0
508.25 30 419.15 0 1 0
509.257 30 409.285 0 1 0
510.272 30 399.337 0 1 0
511.285 30 389.404 0 1 0
512.299 30 379.469 0 1 0
513.313 30 369.535 0 1 0
514.326 30 359.602 0 1 0
515.34 30 349.669 0 1 0
516.353 30 339.738 0 1 0
517.366 30 329.808 0 1 0
518.38 30 319.879 0 1 0
519.393 30 309.951 0 1 0
520.406 30 300.024 0 1 0
521.418 30 290.099 0 1 0
522.431 30 280.175 0 1 0
523.443 30 270.253 0 1 0
524.456 30 260.333 0 1 0
525.468 30 250.416 0 1 0
526.48 30 240.5 0 1 0
527.491 30 230.588 0 1 0
528.502 30 220.678 0 1 0
529.513 30 210.772 0 1 0
530.523 30 200.87 0 1 0
531.533 30 190.972 0 1 0
532.543 30 181.079 0 1 0
533.552 30 171.192 0 1 0
534.56 30 161.311 0 1 0
535.567 30 151.439 0 1 0
536.556 30 141.755 0 1 0
537.509 30 132.407 0 1 0
538.423 30 123.457 0 1 0
539.292 30 114.938 0 1 0
540.115 30 106.869 0 1 0
540.892 30 99.2613 0 1 0
541.62 30 92.1194 0 1 0
542.302 30 85.4446 0 1 0
542.935 30 79.2344 0 1 0
543.522 30 73.4832 0 1 0
544.063 30 68.1815 0 1 0
544.56 30 63.3165 0 1 0
545.013 30 58.8709 0 1 0
545.426 30 54.8236 0 1 0
545.801 30 51.1486 0 1 0
546.141 30 47.8168 0 1 0
546.449 30 44.7962 0 1 0
546.729 30 42.0545 0 1 0
546.984 30 39.5604 0 1 0
547.216 30 37.2854 0 1 0
547.428 30 35.2044 0 1 0
547.623 30 33.2961 0 1 0
547.802 30 31.5421 0 1 0
547.967 30 29.9273 0 1 0
548.119 30 28.4384 0 1 0
548.259 30 27.0642 0 1 0
548.388 30 25.7948 0 1 0
548.508 30 24.6215 0 1 0
548.619 30 23.5365 0 1 0
548.721 30 22.533 0 1 0
548.816 30 21.6044 0 1 0
548.904 30 20.7451 0 1 0
548.985 30 19.9498 0 1 0
549.06 30 19.2135 0 1 0
549.129 30 18.532 0 1 0
549.194 30 17.901 0 1 0
549.253 30 17.3168 0 1 0
549.309 30 16.7758 0 1 0
549.36 30 16.2749 0 1 0
549.407 30 15.8111 0 1 0
549.451 30 15.3816 0 1 0
549.491 30 14.9839 0 1 0
549.529 30 14.6156 0 1 0
549.564 30 14.2746 0 1 0
549.596 30 13.9587 0 1 0
549.626 30 13.6662 0 1 0
549.654 30 13.3954 0 1 0
549.679 30 13.1445 0 1 0
549.703 30 12.9122 0 1 0
549.725 30 12.6971 0 1 0
549.745 30 12.4978 0 1 0
549.764 30 12.3133 0 1 0
549.781 30 12.1424 0 1 0
549.798 30 11.9841 0 1 0
549.812 30 11.8376 0 1 0
549.826 30 11.7018 0 1 0
549.839 30 11.5761 0 1 0
549.851 30 11.4597 0 1 0
549.862 30 11.3518 0 1 0
549.872 30 11.252 0 1 0
549.882 30 11.1595 0 1 0
549.89 30 11.0739 0 1 0
549.899 30 10.9945 0 1 0
549.906 30 10.9211 0 1 0
549.913 30 10.853 0 1 0
549.919 30 10.79 0 1 0
549.925 30 10.7317 0 1 0
549.931 30 10.6776 0 1 0
549.936 30 10.6276 0 1 0
549.941 30 10.5812 0 1 0
549.945 30 10.5383 0 1 0
549.949 30 10.4985 0 1 0
549.953 30 10.4617 0 1 0
549.956 30 10.4276 0 1 0
549.96 30 10.396 0 1 0
549.963 30 10.3667 0 1 0
549.965 30 10.3397 0 1 0
549.968 30 10.3146 0 1 0
549.97 30 10.2913 0 1 0
549.972 30 10.2698 0 1 0
549.975 30 10.2499 0 1 0
549.976 30 10.2314 0 1 0
549.978 30 10.2143 0 1 0
549.98 30 10.1985 0 1 0
549.981 30 10.1838 0 1 0
549.983 30 10.1703 0 1 0
549.984 30 10.1577 0 1 0
549.985 30 10.146 0 1 0
549.986 30 10.1352 0 1 0
549.987 30 10.1253 0 1 0
549.988 30 10.116 0 1 0
549.989 30 10.1074 0 1 0
549.99 30 10.0995 0 1 0
549.991 30 10.0921 0 1 0
549.991 30 10.0853 0 1 0
549.992 30 10.079 0 1 0
549.993 30 10.0732 0 1 0
549.993 30 10.0678 0 1 0
549.994 30 10.0628 0 1 0
549.994 30 10.0581 0 1 0
549.995 30 10.0539 0 1 0
549.995 30 10.0499 0 1 0
549.995 30 10.0462 0 1 0
549.996 30 10.0428 0 1 0
549.996 30 10.0396 0 1 0
549.996 30 10.0367 0 1 0
549.997 30 10.034 0 1 0
549.997 30 10.0315 0 1 0
549.997 30 10.0291 0 1 0
549.997 30 10.027 0 1 0
549.997 30 10.025 0 1 0
549.998 30 10.0232 0 1 0
549.998 30 10.0214 0 1 0
549.998 30 10.0199 0 1 0
549.998 30 10.0184 0 1 0
549.998 30 10.017 0 1 0
549.998 30 10.0158 0 1 0
549.999 30 10.0146 0 1 0
549.999 30 10.0135 0 1 0
549.999 30 10.0125 0 1 0
549.999 30 10.0116 0 1 0
549.999 30 10.0107 0 1 0
549.999 30 10.01 0 1 0
549.999 30 10.0092 0 1 0
549.999 30 10.0085 0 1 0
549.999 30 10.0079 0 1 0
549.999 30 10.0073 0 1 0
549.999 30 10.0068 0 1 0
549.999 30 10.0063 0 1 0
549.999 30 10.0058 0 1 0
549.999 30 10.0054 0 1 0
549.999 30 10.005 0 1 0
550 30 10.0046 0 1 0
550 30 10.0043 0 1 0
550 30 10.004 0 1 0
550 30 10.0037 0 1 0
550 30 10.0034 0 1 0
550 30 10.0031 0 1 0
550 30 10.0029 0 1 0
550 30 10.0027 0 1 0
550 30 10.0025 0 1 0
550 30 10.0023 0 1 0
550 30 10.0021 0 1 0
550 30 10.002 0 1 0
550 30 10.0018 0 1 0
550 30 10.0017 0 1 0
550 30 10.0016 0 1 0
550 30 10.0015 0 1 0
550 30 10.0014 0 1 0
550 30 10.0013 0 1 0
550 30 10.0012 0 1 0
550 30 10.0011 0 1 0
550 30 10.001 0 1 0
550 30 10.0009 0 1 0
550 30 10.0009 0 1 0
550 30 10.0008 0 1 0
550 30 10.0007 0 1 0
200 600 50 600
550.051 30 10.5982 0 1 0
550.152 30 11.7931 0 1 0
550.304 30 13.5855 0 1 0
550.506 30 15.9751 0 1 0
550.759 30 18.9621 0 1 0
551.063 30 22.5462 0 1 0
551.417 30 26.7272 0 1 0
551.822 30 31.5051 0 1 0
552.278 30 36.8795 0 1 0
552.784 30 42.8499 0 1 0
553.34 30 49.4159 0 1 0
553.947 30 56.5763 0 1 0
554.604 30 64.3296 0 1 0
555.311 30 72.6725 0 1 0
556.068 30 81.5976 0 1 0
556.871 30 91.0833 0 1 0
557.714 30 101.029 0 1 0
558.559 30 110.991 0 1 0
559.402 30 120.944 0 1 0
560.246 30 130.901 0 1 0
561.089 30 140.856 0 1 0
561.933 30 150.811 0 1 0
562.777 30 160.765 0 1 0
563.62 30 170.719 0 1 0
564.464 30 180.672 0 1 0
565.307 30 190.625 0 1 0
566.151 30 200.578 0 1 0
566.994 30 210.53 0 1 0
567.837 30 220.481 0 1 0
568.681 30 230.431 0 1 0
569.524 30 240.381 0 1 0
570.367 30 250.33 0 1 0
571.21 30 260.278 0 1 0
572.053 30 270.225 0 1 0
572.896 30 280.171 0 1 0
573.739 30 290.116 0 1 0
574.581 30 300.06 0 1 0
575.424 30 310.003 0 1 0
576.266 30 319.944 0 1 0
577.109 30 329.883 0 1 0
577.951 30 339.821 0 1 0
578.793 30 349.757 0 1 0
579.635 30 359.69 0 1 0
580.476 30 369.621 0 1 0
581.318 30 379.55 0 1 0
582.159 30 389.475 0 1 0
583 30 399.397 0 1 0
583.84 30 409.315 0 1 0
584.68 30 419.228 0 1 0
585.52 30 429.137 0 1 0
586.359 30 439.04 0 1 0
587.198 30 448.935 0 1 0
588.036 30 458.823 0 1 0
588.857 30 468.51 0 1 0
589.649 30 477.856 0 1 0
590.407 30 486.8 0 1 0
591.128 30 495.311 0 1 0
591.811 30 503.371 0 1 0
592.455 30 510.968 0 1 0
593.059 30 518.099 0 1 0
593.624 30 524.762 0 1 0
594.149 30 530.959 0 1 0
594.635 30 536.697 0 1 0
595.083 30 541.985 0 1 0
595.495 30 546.837 0 1 0
595.87 30 551.269 0 1 0
596.212 30 555.303 0 1 0
596.523 30 558.966 0 1 0
596.804 30 562.287 0 1 0
597.059 30 565.297 0 1 0
597.291 30 568.03 0 1 0
597.501 30 570.516 0 1 0
597.694 30 572.784 0 1 0
597.869 30 574.859 0 1 0
598.031 30 576.762 0 1 0
598.179 30 578.511 0 1 0
598.315 30 580.122 0 1 0
598.441 30 581.607 0 1 0
598.557 30 582.977 0 1 0
598.665 30 584.244 0 1 0
598.764 30 585.414 0 1 0
598.856 30 586.496 0 1 0
598.94 30 587.497 0 1 0
599.019 30 588.424 0 1 0
599.092 30 589.281 0 1 0
599.159 30 590.074 0 1 0
599.221 30 590.809 0 1 0
599.279 30 591.489 0 1 0
599.332 30 592.118 0 1 0
599.381 30 592.701 0 1 0
599.427 30 593.24 0 1 0
599.47 30 593.74 0 1 0
599.509 30 594.203 0 1 0
599.545 30 594.631 0 1 0
599.579 30 595.028 0 1 0
599.61 30 595.395 0 1 0
599.639 30 595.736 0 1 0
599.665 30 596.051 0 1 0
599.69 30 596.343 0 1 0
599.713 30 596.613 0 1 0
599.734 30 596.863 0 1 0
599.754 30 597.095 0 1 0
599.772 30 597.309 0 1 0
599.789 30 597.508 0 1 0
599.804 30 597.692 0 1 0
599.819 30 597.863 0 1 0
599.832 30 598.021 0 1 0
599.845 30 598.167 0 1 0
599.856 30 598.302 0 1 0
599.867 30 598.428 0 1 0
599.877 30 598.544 0 1 0
599.886 30 598.651 0 1 0
599.894 30 598.751 0 1 0
599.902 30 598.843 0 1 0
599.909 30 598.929 0 1 0
599.916 30 599.008 0 1 0
599.922 30 599.081 0 1 0
599.928 30 599.149 0 1 0
599.933 30 599.212 0 1 0
599.938 30 599.27 0 1 0
599.943 30 599.324 0 1 0
599.947 30 599.374 0 1 0
599.951 30 599.42 0 1 0
599.954 30 599.463 0 1 0
599.958 30 599.503 0 1 0
599.961 30 599.539 0 1 0
599.964 30 599.573 0 1 0
599.967 30 599.605 0 1 0
599.969 30 599.634 0 1 0
599.971 30 599.661 0 1 0
599.973 30 599.686 0 1 0
599.975 30 599.709 0 1 0
599.977 30 599.731 0 1 0
599.979 30 599.751 0 1 0
599.98 30 599.769 0 1 0
599.982 30 599.786 0 1 0
599.983 30 599.802 0 1 0
599.984 30 599.817 0 1 0
599.986 30 599.83 0 1 0
599.987 30 599.843 0 1 0
599.988 30 599.854 0 1 0
599.989 30 599.865 0 1 0
599.989 30 599.875 0 1 0
599.99 30 599.884 0 1 0
599.991 30 599.893 0 1 0
599.992 30 599.901 0 1 0
599.992 30 599.908 0 1 0
599.993 30 599.915 0 1 0
599.993 30 599.921 0 1 0
599.994 30 599.927 0 1 0
599.994 30 599.932 0 1 0
599.995 30 599.937 0 1 0
599.995 30 599.942 0 1 0
599.995 30 599.946 0 1 0
599.996 30 599.95 0 1 0
599.996 30 599.954 0 1 0
599.996 30 599.957 0 1 0
599.997 30 599.96 0 1 0
599.997 30 599.963 0 1 0
599.997 30 599.966 0 1 0
599.997 30 599.969 0 1 0
599.998 30 599.971 0 1 0
599.998 30 599.973 0 1 0
599.998 30 599.975 0 1 0
599.998 30 599.977 0 1 0
599.998 30 599.979 0 1 0
599.998 30 599.98 0 1 0
599.998 30 599.982 0 1 0
599.999 30 599.983 0 1 0
599.999 30 599.984 0 1 0
599.999 30 599.985 0 1 0
599.999 30 599.987 0 1 0
599.999 30 599.987 0 1 0
599.999 30 599.988 0 1 0
599.999 30 599.989 0 1 0
599.999 30 599.99 0 1 0
599.999 30 599.991 0 1 0
599.999 30 599.991 0 1 0
599.999 30 599.992 0 1 0
599.999 30 599.993 0 1 0
599.999 30 599.993 0 1 0
599.999 30 599.994 0 1 0
600 30 599.994 0 1 0
600 30 599.995 0 1 0
600 30 599.995 0 1 0
600 30 599.995 0 1 0
600 30 599.996 0 1 0
600 30 599.996 0 1 0
600 30 599.996 0 1 0
600 30 599.997 0 1 0
600 30 599.997 0 1 0
600 30 599.997 0 1 0
600 30 599.997 0 1 0
600 30 599.998 0 1 0
600 30 599.998 0 1 0
600 30 599.998 0 1 0
600 30 599.998 0 1 0
600 30 599.998 0 1 0
600 30 599.998 0 1 0
600 30 599.998 0 1 0
200 300 350 300
599.654 30.3462 599.652 0.408248 0.816497 0.408248
598.961 31.0386 598.96 0.408248 0.816497 0.408248
597.922 32.0773 597.921 0.408248 0.816497 0.408248
596.538 33.462 596.537 0.408248 0.816497 0.408248
594.807 35.1929 594.806 0.408248 0.816497 0.408248
592.73 37.2699 592.729 0.408248 0.816497 0.408248
590.307 39.6929 590.306 0.408248 0.816497 0.408248
587.538 42.4617 587.537 0.408248 0.816497 0.408248
584.423 45.5763 584.422 0.408248 0.816497 0.408248
580.963 49.0365 580.962 0.408248 0.816497 0.408248
577.157 52.8419 577.157 0.408248 0.816497 0.408248
573.007 56.9921 573.007 0.408248 0.816497 0.408248
568.513 61.4863 568.513 0.408248 0.816497 0.408248
563.677 66.3227 563.676 0.408248 0.816497 0.408248
558.502 71.4978 558.501 0.408248 0.816497 0.408248
552.999 77.0004 552.999 0.408248 0.816497 0.408248
547.225 82.7739 547.225 0.408248 0.816497 0.408248
541.458 88.541 541.458 0.408248 0.816497 0.408248
535.688 94.3116 535.687 0.408248 0.816497 0.408248
529.919 100.08 529.919 0.408248 0.816497 0.408248
524.15 105.849 524.15 0.408248 0.816497 0.408248
518.382 111.618 518.381 0.408248 0.816497 0.408248
512.613 117.386 512.613 0.408248 0.816497 0.408248
506.845 123.154 506.845 0.408248 0.816497 0.408248
501.077 128.922 501.077 0.408248 0.816497 0.408248
495.31 134.689 495.31 0.408248 0.816497 0.408248
489.543 140.457 489.542 0.408248 0.816497 0.408248
483.776 146.223 483.776 0.408248 0.816497 0.408248
478.01 151.99 478.009 0.408248 0.816497 0.408248
472.244 157.756 472.243 0.408248 0.816497 0.408248
466.478 163.521 466.478 0.408248 0.816497 0.408248
460.713 169.286 460.713 0.408248 0.816497 0.408248
454.949 175.05 454.949 0.408248 0.816497 0.408248
449.185 180.814 449.185 0.408248 0.816497 0.408248
443.422 186.577 443.422 0.408248 0.816497 0.408248
437.66 192.339 437.66 0.408248 0.816497 0.408248
431.899 198.1 431.899 0.408248 0.816497 0.408248
426.138 203.861 426.138 0.408248 0.816497 0.408248
420.379 209.62 420.379 0.408248 0.816497 0.408248
414.621 215.378 414.621 0.408248 0.816497 0.408248
408.865 221.134 408.865 0.408248 0.816497 0.408248
403.11 226.889 403.11 0.408248 0.816497 0.408248
397.357 232.643 397.357 0.408248 0.816497 0.408248
391.606 238.394 391.606 0.408248 0.816497 0.408248
385.857 244.142 385.857 0.408248 0.816497 0.408248
380.111 249.888 380.111 0.408248 0.816497 0.408248
374.369 255.63 374.369 0.408248 0.816497 0.408248
368.791 261.208 368.791 0.408248 0.816497 0.408248
363.441 266.558 363.441 0.408248 0.816497 0.408248
358.345 271.654 358.345 0.408248 0.816497 0.408248
353.516 276.484 353.516 0.408248 0.816497 0.408248
348.961 281.038 348.961 0.408248 0.816497 0.408248
344.685 285.315 344.684 0.408248 0.816497 0.408248
340.687 289.312 340.687 0.408248 0.816497 0.408248
336.967 293.033 336.967 0.408248 0.816497 0.408248
333.52 296.479 333.52 0.408248 0.816497 0.408248
330.342 299.657 330.342 0.408248 0.816497 0.408248
327.423 302.576 327.423 0.408248 0.816497 0.408248
324.753 305.247 324.752 0.408248 0.816497 0.408248
322.316 307.683 322.316 0.408248 0.816497 0.408248
320.096 309.903 320.096 0.408248 0.816497 0.408248
318.074 311.925 318.074 0.408248 0.816497 0.408248
316.228 313.771 316.228 0.408248 0.816497 0.408248
314.539 315.46 314.539 0.408248 0.816497 0.408248
312.989 317.01 312.989 0.408248 0.816497 0.408248
311.563 318.436 311.563 0.408248 0.816497 0.408248
310.247 319.752 310.247 0.408248 0.816497 0.408248
309.03 320.969 309.03 0.408248 0.816497 0.408248
307.904 322.095 307.904 0.408248 0.816497 0.408248
306.861 323.139 306.861 0.408248 0.816497 0.408248
305.893 324.106 305.893 0.408248 0.816497 0.408248
304.996 325.003 304.996 0.408248 0.816497 0.408248
304.164 325.835 304.164 0.408248 0.816497 0.408248
303.391 326.608 303.391 0.408248 0.816497 0.408248
302.674 327.325 302.674 0.408248 0.816497 0.408248
302.009 327.991 302.009 0.408248 0.816497 0.408248
301.391 328.609 301.391 0.408248 0.816497 0.408248
300.817 329.182 300.817 0.408248 0.816497 0.408248
300.284 329.715 300.284 0.408248 0.816497 0.408248
299.789 330.21 299.789 0.408248 0.816497 0.408248
299.33 330.669 299.33 0.408248 0.816497 0.408248
298.903 331.096 298.903 0.408248 0.816497 0.408248
298.507 331.493 298.507 0.408248 0.816497 0.408248
298.139 331.861 298.139 0.408248 0.816497 0.408248
297.797 332.202 297.797 0.408248 0.816497 0.408248
297.479 332.52 297.479 0.408248 0.816497 0.408248
297.184 332.815 297.184 0.408248 0.816497 0.408248
296.91 333.089 296.91 0.408248 0.816497 0.408248
296.656 333.343 296.656 0.408248 0.816497 0.408248
296.42 333.58 296.42 0.408248 0.816497 0.408248
296.2 333.799 296.2 0.408248 0.816497 0.408248
295.996 334.003 295.996 0.408248 0.816497 0.408248
295.807 334.192 295.807 0.408248 0.816497 0.408248
295.631 334.368 295.631 0.408248 0.816497 0.408248
295.468 334.532 295.468 0.408248 0.816497 0.408248
295.316 334.683 295.316 0.408248 0.816497 0.408248
295.175 334.824 295.175 0.408248 0.816497 0.408248
295.044 334.955 295.044 0.408248 0.816497 0.408248
294.922 335.077 294.922 0.408248 0.816497 0.408248
294.809 335.19 294.809 0.408248 0.816497 0.408248
294.704 335.295 294.704 0.408248 0.816497 0.408248
294.607 335.392 294.607 0.408248 0.816497 0.408248
294.516 335.483 294.516 0.408248 0.816497 0.408248
294.432 335.567 294.432 0.408248 0.816497 0.408248
294.354 335.645 294.354 0.408248 0.816497 0.408248
294.281 335.718 294.281 0.408248 0.816497 0.408248
294.214 335.785 294.214 0.408248 0.816497 0.408248
294.151 335.848 294.151 0.408248 0.816497 0.408248
294.093 335.906 294.093 0.408248 0.816497 0.408248
294.039 335.96 294.039 0.408248 0.816497 0.408248
293.989 336.01 293.989 0.408248 0.816497 0.408248
293.942 336.057 293.942 0.408248 0.816497 0.408248
293.899 336.1 293.899 0.408248 0.816497 0.408248
293.859 336.14 293.859 0.408248 0.816497 0.408248
293.821 336.178 293.821 0.408248 0.816497 0.408248
293.787 336.213 293.787 0.408248 0.816497 0.408248
293.754 336.245 293.754 0.408248 0.816497 0.408248
293.724 336.275 293.724 0.408248 0.816497 0.408248
293.697 336.303 293.697 0.408248 0.816497 0.408248
293.671 336.328 293.671 0.408248 0.816497 0.408248
293.647 336.352 293.647 0.408248 0.816497 0.408248
293.624 336.375 293.624 0.408248 0.816497 0.408248
293.604 336.395 293.604 0.408248 0.816497 0.408248
293.584 336.415 293.584 0.408248 0.816497 0.408248
293.567 336.433 293.567 0.408248 0.816497 0.408248
293.55 336.449 293.55 0.408248 0.816497 0.408248
293.535 336.465 293.535 0.408248 0.816497 0.408248
293.52 336.479 293.52 0.408248 0.816497 0.408248
293.507 336.492 293.507 0.408248 0.816497 0.408248
293.495 336.505 293.495 0.408248 0.816497 0.408248
293.483 336.516 293.483 0.408248 0.816497 0.408248
293.472 336.527 293.472 0.408248 0.816497 0.408248
293.462 336.537 293.462 0.408248 0.816497 0.408248
293.453 336.546 293.453 0.408248 0.816497 0.408248
293.445 336.554 293.445 0.408248 0.816497 0.408248
293.437 336.562 293.437 0.408248 0.816497 0.408248
293.429 336.57 293.429 0.408248 0.816497 0.408248
293.423 336.577 293.423 0.408248 0.816497 0.408248
293.416 336.583 293.416 0.408248 0.816497 0.408248
293.41 336.589 293.41 0.408248 0.816497 0.408248
293.405 336.594 293.405 0.408248 0.816497 0.408248
293.4 336.599 293.4 0.408248 0.816497 0.408248
293.395 336.604 293.395 0.408248 0.816497 0.408248
293.391 336.609 293.391 0.408248 0.816497 0.408248
293.386 336.613 293.386 0.408248 0.816497 0.408248
293.383 336.616 293.383 0.408248 0.816497 0.408248
293.379 336.62 293.379 0.408248 0.816497 0.408248
293.376 336.623 293.376 0.408248 0.816497 0.408248
293.373 336.626 293.373 0.408248 0.816497 0.408248
293.37 336.629 293.37 0.408248 0.816497 0.408248
293.367 336.632 293.367 0.408248 0.816497 0.408248
293.365 336.634 293.365 0.408248 0.816497 0.408248
293.363 336.636 293.363 0.408248 0.816497 0.408248
293.361 336.639 293.361 0.408248 0.816497 0.408248
293.359 336.641 293.359 0.408248 0.816497 0.408248
293.357 336.642 293.357 0.408248 0.816497 0.408248
293.355 336.644 293.355 0.408248 0.816497 0.408248
293.354 336.646 293.354 0.408248 0.816497 0.408248
293.352 336.647 293.352 0.408248 0.816497 0.408248
293.351 336.648 293.351 0.408248 0.816497 0.408248
293.349 336.65 293.349 0.408248 0.816497 0.408248
293.348 336.651 293.348 0.408248 0.816497 0.408248
293.347 336.652 293.347 0.408248 0.816497 0.408248
293.346 336.653 293.346 0.408248 0.816497 0.408248
293.345 336.654 293.345 0.408248 0.816497 0.408248
293.344 336.655 293.344 0.408248 0.816497 0.408248
293.344 336.656 293.344 0.408248 0.816497 0.408248
293.343 336.656 293.343 0.408248 0.816497 0.408248
293.342 336.657 293.342 0.408248 0.816497 0.408248
293.342 336.658 293.342 0.408248 0.816497 0.408248
293.341 336.658 293.341 0.408248 0.816497 0.408248
293.34 336.659 293.34 0.408248 0.816497 0.408248
293.34 336.659 293.34 0.408248 0.816497 0.408248
293.339 336.66 293.339 0.408248 0.816497 0.408248
293.339 336.66 293.339 0.408248 0.816497 0.408248
293.338 336.661 293.338 0.408248 0.816497 0.408248
293.338 336.661 293.338 0.408248 0.816497 0.408248
293.338 336.661 293.338 0.408248 0.816497 0.408248
293.337 336.662 293.337 0.408248 0.816497 0.408248
293.337 336.662 293.337 0.408248 0.816497 0.408248
293.337 336.662 293.337 0.408248 0.816497 0.408248
293.337 336.663 293.337 0.408248 0.816497 0.408248
293.336 336.663 293.336 0.408248 0.816497 0.408248
293.336 336.663 293.336 0.408248 0.816497 0.408248
293.336 336.663 293.336 0.408248 0.816497 0.408248
293.336 336.664 293.336 0.408248 0.816497 0.408248
293.335 336.664 293.335 0.408248 0.816497 0.408248
293.335 336.664 293.335 0.408248 0.816497 0.408248
293.335 336.664 293.335 0.408248 0.816497 0.408248
293.335 336.664 293.335 0.408248 0.816497 0.408248
293.335 336.664 293.335 0.408248 0.816497 0.408248
293.335 336.664 293.335 0.408248 0.816497 0.408248
293.335 336.665 293.335 0.408248 0.816497 0.408248
293.334 336.665 293.334 0.408248 0.816497 0.408248
293.334 336.665 293.334 0.408248 0.816497 0.408248
293.334 336.665 293.334 0.408248 0.816497 0.408248
293.334 336.665 293.334 0.408248 0.816497 0.408248
293.334 336.665 293.334 0.408248 0.816497 0.408248
293.334 336.665 293.334 0.408248 0.816497 0.408248
293.334 336.665 293.334 0.408248 0.816497 0.408248
